<svg viewBox="0 0 70 71" fill="none" xmlns="http://www.w3.org/2000/svg">
<circle cx="35" cy="35.7544" r="35" fill="#F6F6F6"/>
<path d="M30.9078 41.4854C30.1938 41.4854 29.5638 41.3337 29.0178 41.0304C28.4718 40.7224 28.0448 40.2954 27.7368 39.7494C27.4334 39.2034 27.2818 38.5734 27.2818 37.8594V34.6114C27.2818 33.8974 27.4334 33.2674 27.7368 32.7214C28.0448 32.1754 28.4718 31.7507 29.0178 31.4474C29.5638 31.1394 30.1938 30.9854 30.9078 30.9854C31.6218 30.9854 32.2494 31.1394 32.7908 31.4474C33.3368 31.7507 33.7638 32.1754 34.0718 32.7214C34.3798 33.2674 34.5338 33.8974 34.5338 34.6114V37.8594C34.5338 38.5734 34.3798 39.2034 34.0718 39.7494C33.7638 40.2954 33.3368 40.7224 32.7908 41.0304C32.2494 41.3337 31.6218 41.4854 30.9078 41.4854ZM30.9078 39.8824C31.2624 39.8824 31.5844 39.7984 31.8738 39.6304C32.1631 39.4577 32.3918 39.2291 32.5598 38.9444C32.7278 38.6551 32.8118 38.3331 32.8118 37.9784V34.4854C32.8118 34.1261 32.7278 33.8041 32.5598 33.5194C32.3918 33.2301 32.1631 33.0014 31.8738 32.8334C31.5844 32.6607 31.2624 32.5744 30.9078 32.5744C30.5531 32.5744 30.2311 32.6607 29.9418 32.8334C29.6524 33.0014 29.4238 33.2301 29.2558 33.5194C29.0878 33.8041 29.0038 34.1261 29.0038 34.4854V37.9784C29.0038 38.3331 29.0878 38.6551 29.2558 38.9444C29.4238 39.2291 29.6524 39.4577 29.9418 39.6304C30.2311 39.7984 30.5531 39.8824 30.9078 39.8824ZM38.2466 41.2754V33.0364L36.3566 34.1914V32.3294L38.2466 31.1954H39.9686V41.2754H38.2466Z" fill="#0068FF"/>
<path d="M55.1471 35.7544C55.1471 38.4178 54.6225 41.0551 53.6033 43.5158C52.5841 45.9765 51.0901 48.2123 49.2068 50.0956C47.3235 51.979 45.0877 53.4729 42.627 54.4921C40.1663 55.5114 37.529 56.036 34.8656 56.036C32.2021 56.036 29.5648 55.5114 27.1041 54.4921C24.6435 53.4729 22.4076 51.979 20.5243 50.0956C18.641 48.2123 17.1471 45.9765 16.1278 43.5158C15.1086 41.0551 14.584 38.4178 14.584 35.7544" stroke="#0068FF" stroke-width="2" stroke-linecap="round"/>
</svg>
