<svg width="80" height="22" viewBox="0 0 80 22" fill="none" xmlns="http://www.w3.org/2000/svg">
<g clip-path="url(#clip0_2022_14240)">
<path style="mix-blend-mode:soft-light" d="M24.7482 13.5561C27.7978 10.45 27.7978 5.41408 24.7482 2.30804C21.6985 -0.79802 16.9463 -0.588585 13.8967 2.51747L8.24555 8.31204C5.19592 11.4181 4.96547 16.2446 8.01511 19.3507C11.0648 22.4567 16.0092 22.4567 19.0588 19.3507L24.7482 13.5561Z" fill="url(#paint0_linear_2022_14240)"/>
<path style="mix-blend-mode:soft-light" d="M2.28723 13.5561C-0.762412 10.45 -0.762408 5.41408 2.28723 2.30804C5.33685 -0.79802 10.1555 -0.588585 13.2052 2.51747L19.0584 8.10261C22.1081 11.2087 22.1081 16.2446 19.0584 19.3507C16.0088 22.4567 11.0644 22.4567 8.01472 19.3507L2.28723 13.5561Z" fill="url(#paint1_linear_2022_14240)"/>
<path d="M13.5635 2.85889L19.0588 8.10243C22.1085 11.2085 22.1085 16.2444 19.0588 19.3505C17.5389 20.8986 15.5482 21.6751 13.5561 21.68C11.564 21.6751 9.53507 20.8986 8.01511 19.3505C4.96547 16.2444 5.19592 11.4179 8.24555 8.31187L13.5635 2.85889Z" fill="white"/>
<path d="M24.7482 13.5561C27.7978 10.45 27.7978 5.41408 24.7482 2.30804C21.6985 -0.79802 16.9463 -0.588585 13.8967 2.51747L8.24555 8.31204C5.19592 11.4181 4.96547 16.2446 8.01511 19.3507C11.0648 22.4567 16.0092 22.4567 19.0588 19.3507L24.7482 13.5561Z" fill="url(#paint2_radial_2022_14240)"/>
<path d="M2.28723 13.5561C-0.762412 10.45 -0.762408 5.41408 2.28723 2.30804C5.33685 -0.79802 10.1555 -0.588585 13.2052 2.51747L19.0584 8.10261C22.1081 11.2087 22.1081 16.2446 19.0584 19.3507C16.0088 22.4567 11.0644 22.4567 8.01472 19.3507L2.28723 13.5561Z" fill="#0068FF"/>
<path style="mix-blend-mode:soft-light" d="M13.5635 2.85889L19.0588 8.10243C22.1085 11.2085 22.1085 16.2444 19.0588 19.3505C17.5389 20.8986 15.5482 21.6751 13.5561 21.68C11.564 21.6751 9.53507 20.8986 8.01511 19.3505C4.96547 16.2444 5.19592 11.4179 8.24555 8.31187L13.5635 2.85889Z" fill="url(#paint3_linear_2022_14240)"/>
<path d="M2.20226 13.4683C-0.752247 10.4591 -0.682127 5.33287 2.21104 2.38619C5.25709 -0.716205 9.84968 -0.718408 13.2049 2.51727C16.3106 5.48064 16.1344 10.3092 13.1387 13.3603C10.143 16.4114 5.19795 16.5194 2.20226 13.4683Z" fill="url(#paint4_linear_2022_14240)"/>
<path d="M59.1035 21.7284L66.5544 0.0253906H72.3474L79.7983 21.7284H75.7284L68.9668 2.49925H69.853L63.1734 21.7284H59.1035ZM63.7257 16.5865V12.7995H75.3451V16.5865H63.7257Z" fill="#0068FF"/>
<path d="M31.1895 21.7284V0.0253906H46.4524V3.80303H35.1447V9.01246H43.5534V12.7995H35.1447V17.9508H46.4524V21.7284H31.1895Z" fill="#0068FF"/>
<path d="M51.0602 21.7284L43.6094 0.0253906H47.6793L53.9158 17.817L60.2342 0.0253906H64.3041L56.8536 21.7284H51.0602Z" fill="#0068FF"/>
</g>
<defs>
<linearGradient id="paint0_linear_2022_14240" x1="20.2895" y1="7.96911" x2="3.8624" y2="18.776" gradientUnits="userSpaceOnUse">
<stop stop-color="#007AFF" stop-opacity="0"/>
<stop offset="0.0001" stop-color="#0063CF"/>
<stop offset="1" stop-color="white"/>
</linearGradient>
<linearGradient id="paint1_linear_2022_14240" x1="20.2891" y1="7.96911" x2="3.86201" y2="18.776" gradientUnits="userSpaceOnUse">
<stop stop-color="#007AFF" stop-opacity="0"/>
<stop offset="0.0001" stop-color="#0063CF"/>
<stop offset="1" stop-color="white"/>
</linearGradient>
<radialGradient id="paint2_radial_2022_14240" cx="0" cy="0" r="1" gradientUnits="userSpaceOnUse" gradientTransform="translate(14.9169 10.6711) rotate(-123.48) scale(34.503 41.6467)">
<stop offset="0.0979089" stop-color="#05B4C2"/>
<stop offset="0.476104" stop-color="#36BBC7" stop-opacity="0.54"/>
</radialGradient>
<linearGradient id="paint3_linear_2022_14240" x1="20.2895" y1="7.96894" x2="3.8624" y2="18.7758" gradientUnits="userSpaceOnUse">
<stop stop-color="#007AFF" stop-opacity="0"/>
<stop offset="0.0001" stop-color="#0063CF"/>
<stop offset="1" stop-color="white"/>
</linearGradient>
<linearGradient id="paint4_linear_2022_14240" x1="-2.03198" y1="4.63345" x2="25.3573" y2="12.1124" gradientUnits="userSpaceOnUse">
<stop stop-color="#000AFF" stop-opacity="0.02"/>
<stop offset="1" stop-color="#2080F9" stop-opacity="0.81"/>
</linearGradient>
<clipPath id="clip0_2022_14240">
<rect width="80" height="21.7544" fill="white"/>
</clipPath>
</defs>
</svg>
