<svg width="60" height="61" viewBox="0 0 60 61" fill="none" xmlns="http://www.w3.org/2000/svg">
<rect y="0.754395" width="60" height="60" rx="30" fill="white"/>
<rect x="14.598" y="26.0014" width="13" height="23.0909" rx="6.5" transform="rotate(-36.5152 14.598 26.0014)" fill="#CCE1FF" stroke="#0068FF" stroke-width="2"/>
<rect x="35.2191" y="18.1595" width="13" height="23.0909" rx="6.5" transform="rotate(38.4848 35.2191 18.1595)" stroke="#0068FF" stroke-width="2"/>
</svg>
