<svg width="180" height="61" viewBox="0 0 180 61" fill="none" xmlns="http://www.w3.org/2000/svg">
<g clip-path="url(#clip0_2361_1162)">
<path d="M58.8691 48.3269H57.1584C57.1584 46.7606 56.8299 45.668 56.1731 45.049C55.5162 44.4206 54.4182 44.1064 52.8792 44.1064H48.3749C47.0799 44.1064 45.9585 43.9845 45.0107 43.7406C44.0629 43.4874 43.2793 43.0794 42.66 42.5167C42.0406 41.9539 41.5808 41.2036 41.2805 40.2657C40.9802 39.3278 40.8301 38.1695 40.8301 36.7908H43.589C43.589 37.8788 43.7579 38.737 44.0957 39.3654C44.4336 39.9844 44.9591 40.4252 45.6723 40.6878C46.3761 40.941 47.2769 41.0676 48.3749 41.0676H54.0053C54.7373 41.0676 55.4036 41.1661 56.0041 41.3631C56.6047 41.5506 57.1208 41.9024 57.5525 42.4182C57.9842 42.934 58.3173 43.6703 58.5519 44.6269C58.7105 46.4769 58.774 47.2168 58.8691 48.3269ZM76.865 36.7908C76.865 38.1695 76.7148 39.3278 76.4145 40.2657C76.1142 41.2036 75.6544 41.9539 75.0351 42.5167C74.4157 43.0794 73.6321 43.4874 72.6844 43.7406C71.7366 43.9845 70.6152 44.1064 69.3202 44.1064H64.8158C63.2768 44.1064 62.1789 44.4206 61.522 45.049C60.8651 45.668 60.5367 46.7606 60.5367 48.3269H59.1431H58.8691L58.5519 44.6269H59.1431C59.3777 43.6703 59.7109 42.934 60.1425 42.4182C60.5742 41.9024 61.0903 41.5506 61.6909 41.3631C62.2915 41.1661 62.9577 41.0676 63.6897 41.0676H69.3202C70.4181 41.0676 71.319 40.941 72.0228 40.6878C72.7266 40.4252 73.2474 39.9844 73.5852 39.3654C73.9324 38.737 74.106 37.8788 74.106 36.7908H76.865Z" fill="#A8AFC5"/>
<path d="M81.4887 20.6404V12.362H83.4907V19.0154H86.9366V20.6404H81.4887Z" fill="#A8AFC5"/>
<path d="M87.9729 20.6404V12.362H93.7484V13.9869H89.9749V15.6847H93.4532V17.3137H89.9749V19.0154H93.7484V20.6404H87.9729Z" fill="#A8AFC5"/>
<path d="M100.438 15.0662C100.392 14.8964 100.325 14.7469 100.236 14.6175C100.147 14.4855 100.038 14.3736 99.9081 14.282C99.7787 14.1904 99.6304 14.1217 99.4632 14.0759C99.296 14.0274 99.1127 14.0031 98.9132 14.0031C98.5114 14.0031 98.1636 14.1001 97.8697 14.2941C97.5785 14.4882 97.3534 14.7711 97.1943 15.143C97.0352 15.5122 96.9557 15.9609 96.9557 16.4891C96.9557 17.0199 97.0325 17.4727 97.1862 17.8472C97.3399 18.2218 97.5623 18.5075 97.8535 18.7042C98.1447 18.9009 98.4979 18.9993 98.9132 18.9993C99.2799 18.9993 99.5899 18.94 99.8434 18.8214C100.1 18.7002 100.294 18.529 100.426 18.3081C100.558 18.0871 100.626 17.8715 100.626 17.5724H98.9819V16.1131H102.553V17.2086C102.553 17.9496 102.395 18.5843 102.08 19.1125C101.767 19.6406 101.336 20.0462 100.786 20.3292C100.238 20.6121 99.6088 20.7536 98.897 20.7536C98.107 20.7536 97.4127 20.5825 96.8141 20.2402C96.2155 19.898 95.7491 19.4102 95.4147 18.777C95.0804 18.141 94.9132 17.3864 94.9132 16.5133C94.9132 15.8342 95.0143 15.2319 95.2165 14.7064C95.4188 14.1783 95.7005 13.7309 96.0618 13.3644C96.4258 12.9979 96.8465 12.7204 97.3237 12.5317C97.8036 12.3431 98.32 12.2488 98.8727 12.2488C99.3527 12.2488 99.7989 12.3175 100.211 12.4549C100.627 12.5924 100.993 12.7864 101.312 13.037C101.632 13.2876 101.893 13.5854 102.092 13.9303C102.292 14.2753 102.416 14.6539 102.464 15.0662H100.438Z" fill="#A8AFC5"/>
<path d="M105.269 20.6404H103.117L105.912 12.362H108.577L111.372 20.6404H109.22L107.275 14.4477H107.21L105.269 20.6404ZM106.29 17.3824H108.197L108.674 18.9023H105.814L106.29 17.3824Z" fill="#A8AFC5"/>
<path d="M112.264 20.6404V12.362H114.266V19.0154H117.712V20.6404H112.264Z" fill="#A8AFC5"/>
<path d="M85.9659 26.5428C85.9389 26.2463 85.8189 26.0159 85.6059 25.8515C85.3956 25.6845 85.095 25.6009 84.704 25.6009C84.4452 25.6009 84.2295 25.6346 84.0569 25.702C83.8843 25.7694 83.7549 25.8623 83.6687 25.9809C83.5824 26.0968 83.5379 26.2302 83.5352 26.3811C83.5298 26.505 83.5541 26.6142 83.608 26.7085C83.6646 26.8028 83.7455 26.8864 83.8506 26.9591C83.9585 27.0292 84.0879 27.0912 84.2389 27.1451C84.3899 27.199 84.5598 27.2461 84.7485 27.2865L85.4603 27.4482C85.8702 27.5372 86.2315 27.6557 86.5442 27.8039C86.8597 27.9522 87.124 28.1287 87.337 28.3335C87.5527 28.5383 87.7158 28.7741 87.8263 29.0409C87.9369 29.3076 87.9935 29.6068 87.9962 29.9382C87.9935 30.461 87.8614 30.9097 87.5999 31.2843C87.3383 31.6589 86.9622 31.9459 86.4715 32.1453C85.9834 32.3447 85.3943 32.4444 84.704 32.4444C84.0111 32.4444 83.4071 32.3406 82.8921 32.1331C82.3771 31.9256 81.9767 31.6104 81.6909 31.1873C81.4051 30.7642 81.2582 30.2293 81.2501 29.5825H83.1671C83.1833 29.8493 83.2548 30.0716 83.3815 30.2495C83.5082 30.4273 83.6821 30.5621 83.9032 30.6537C84.127 30.7453 84.3859 30.7911 84.6798 30.7911C84.9494 30.7911 85.1786 30.7548 85.3673 30.682C85.5588 30.6092 85.7057 30.5082 85.8082 30.3788C85.9106 30.2495 85.9632 30.1013 85.9659 29.9342C85.9632 29.7779 85.9147 29.6445 85.8203 29.534C85.7259 29.4208 85.5803 29.3238 85.3835 29.243C85.1894 29.1594 84.9413 29.0826 84.6393 29.0126L83.7738 28.8104C83.0566 28.6461 82.4917 28.3806 82.0792 28.0141C81.6666 27.6449 81.4617 27.1464 81.4644 26.5185C81.4617 26.0065 81.5992 25.5578 81.877 25.1725C82.1547 24.7871 82.5389 24.4866 83.0296 24.271C83.5204 24.0555 84.0798 23.9477 84.7081 23.9477C85.3498 23.9477 85.9066 24.0568 86.3784 24.2751C86.853 24.4907 87.221 24.7938 87.4826 25.1846C87.7441 25.5753 87.8776 26.0281 87.883 26.5428H85.9659Z" fill="#A8AFC5"/>
<path d="M89.0073 32.3393V24.0608H94.7828V25.6858H91.0093V27.3835H94.4875V29.0126H91.0093V30.7143H94.7828V32.3393H89.0073Z" fill="#A8AFC5"/>
<path d="M103.555 27.0602H101.533C101.506 26.8527 101.451 26.6654 101.367 26.4983C101.284 26.3312 101.173 26.1884 101.035 26.0698C100.898 25.9513 100.735 25.861 100.546 25.799C100.36 25.7343 100.154 25.702 99.9273 25.702C99.5256 25.702 99.1791 25.8003 98.8879 25.9971C98.5994 26.1938 98.3769 26.4781 98.2206 26.85C98.0669 27.2219 97.99 27.6719 97.99 28.2001C97.99 28.7498 98.0682 29.2106 98.2246 29.5825C98.3837 29.9517 98.6061 30.2306 98.8919 30.4192C99.1804 30.6052 99.5215 30.6982 99.9152 30.6982C100.136 30.6982 100.337 30.6699 100.518 30.6133C100.701 30.5567 100.862 30.4745 100.999 30.3667C101.139 30.2562 101.254 30.1228 101.343 29.9665C101.435 29.8075 101.498 29.6283 101.533 29.4289L103.555 29.441C103.52 29.8075 103.414 30.1686 103.236 30.5243C103.06 30.8801 102.819 31.2048 102.512 31.4985C102.204 31.7896 101.83 32.0213 101.387 32.1938C100.948 32.3662 100.444 32.4525 99.8747 32.4525C99.1252 32.4525 98.4538 32.2881 97.8606 31.9593C97.2701 31.6279 96.8037 31.1455 96.4612 30.5122C96.1188 29.8789 95.9476 29.1082 95.9476 28.2001C95.9476 27.2892 96.1215 26.5172 96.4693 25.8839C96.8171 25.2506 97.2876 24.7696 97.8808 24.4408C98.474 24.1121 99.1386 23.9477 99.8747 23.9477C100.376 23.9477 100.84 24.0177 101.266 24.1579C101.692 24.2953 102.067 24.4974 102.39 24.7642C102.714 25.0283 102.977 25.353 103.179 25.7384C103.381 26.1237 103.507 26.5643 103.555 27.0602Z" fill="#A8AFC5"/>
<path d="M109.712 24.0608H111.71V29.4006C111.71 30.0177 111.563 30.5553 111.269 31.0135C110.975 31.4689 110.565 31.8219 110.039 32.0725C109.514 32.3204 108.903 32.4444 108.207 32.4444C107.504 32.4444 106.889 32.3204 106.363 32.0725C105.837 31.8219 105.429 31.4689 105.138 31.0135C104.846 30.5553 104.701 30.0177 104.701 29.4006V24.0608H106.703V29.2268C106.703 29.5124 106.765 29.7671 106.889 29.9908C107.016 30.2144 107.192 30.3896 107.419 30.5163C107.645 30.6429 107.908 30.7062 108.207 30.7062C108.507 30.7062 108.768 30.6429 108.992 30.5163C109.218 30.3896 109.395 30.2144 109.522 29.9908C109.648 29.7671 109.712 29.5124 109.712 29.2268V24.0608Z" fill="#A8AFC5"/>
<path d="M112.965 32.3393V24.0608H116.386C117.006 24.0608 117.542 24.1727 117.992 24.3964C118.445 24.6173 118.794 24.9353 119.039 25.3503C119.285 25.7626 119.407 26.2517 119.407 26.8176C119.407 27.3916 119.282 27.8794 119.031 28.2809C118.78 28.6798 118.425 28.9843 117.964 29.1945C117.502 29.402 116.956 29.5057 116.326 29.5057H114.967V27.9292H115.953C116.255 27.9292 116.508 27.8902 116.71 27.812C116.915 27.7312 117.07 27.6099 117.175 27.4482C117.28 27.2838 117.333 27.0736 117.333 26.8176C117.333 26.5616 117.28 26.3501 117.175 26.183C117.07 26.0132 116.915 25.8866 116.71 25.803C116.505 25.7168 116.253 25.6737 115.953 25.6737H114.967V32.3393H112.965ZM117.982 29.1777L119.69 32.3393H117.506L115.953 29.5057C115.953 29.5057 116.699 29.5227 117.046 29.4553C117.18 29.4294 117.381 29.3975 117.539 29.3495C117.919 29.2337 117.982 29.1777 117.982 29.1777Z" fill="#A8AFC5"/>
<path d="M122.507 24.0608V32.3393H120.505V24.0608H122.507Z" fill="#A8AFC5"/>
<path d="M123.493 25.6858V24.0608H130.494V25.6858H127.983V32.3393H126.009V25.6858H123.493Z" fill="#A8AFC5"/>
<path d="M131.059 24.0608H133.296L135.047 27.525H135.12L136.871 24.0608H139.108L136.079 29.5744V32.3393H134.089V29.5744L131.059 24.0608Z" fill="#A8AFC5"/>
<path d="M89.3066 39.899C89.3066 40.8098 89.1313 41.5819 88.7808 42.2152C88.4303 42.8484 87.9558 43.3295 87.3572 43.6582C86.7613 43.987 86.0926 44.1514 85.3511 44.1514C84.607 44.1514 83.9369 43.9856 83.341 43.6542C82.7452 43.3227 82.272 42.8417 81.9215 42.2111C81.5736 41.5778 81.3997 40.8071 81.3997 39.899C81.3997 38.9881 81.5736 38.2161 81.9215 37.5828C82.272 36.9495 82.7452 36.4685 83.341 36.1397C83.9369 35.8109 84.607 35.6466 85.3511 35.6466C86.0926 35.6466 86.7613 35.8109 87.3572 36.1397C87.9558 36.4685 88.4303 36.9495 88.7808 37.5828C89.1313 38.2161 89.3066 38.9881 89.3066 39.899ZM87.2601 39.899C87.2601 39.36 87.1833 38.9046 87.0296 38.5327C86.8786 38.1608 86.6602 37.8792 86.3744 37.6879C86.0913 37.4965 85.7502 37.4009 85.3511 37.4009C84.9548 37.4009 84.6137 37.4965 84.3279 37.6879C84.0421 37.8792 83.8223 38.1608 83.6687 38.5327C83.5177 38.9046 83.4422 39.36 83.4422 39.899C83.4422 40.4379 83.5177 40.8933 83.6687 41.2652C83.8223 41.6371 84.0421 41.9187 84.3279 42.1101C84.6137 42.3014 84.9548 42.397 85.3511 42.397C85.7502 42.397 86.0913 42.3014 86.3744 42.1101C86.6602 41.9187 86.8786 41.6371 87.0296 41.2652C87.1833 40.8933 87.2601 40.4379 87.2601 39.899Z" fill="#A8AFC5"/>
<path d="M90.4754 44.0382V35.7597H96.1296V37.3847H92.4774V39.0824H95.7696V40.7114H92.4774V44.0382H90.4754Z" fill="#A8AFC5"/>
<path d="M101.587 35.7597V44.0382H99.5845V35.7597H101.587Z" fill="#A8AFC5"/>
<path d="M102.572 37.3847V35.7597H109.573V37.3847H107.062V44.0382H105.088V37.3847H102.572Z" fill="#A8AFC5"/>
<path d="M47.3481 24.0334V21.319H63.6433V24.0334L47.3481 24.0334Z" fill="#A8AFC5"/>
<path d="M47.3481 29.4621V26.7477H70.1613V29.4621H47.3481Z" fill="#A8AFC5"/>
<path d="M47.3481 34.8908V32.1764H70.1613V34.8908H47.3481Z" fill="#A8AFC5"/>
<path d="M40.8301 15.076H43.5459V19.419H40.8301V15.076Z" fill="#A8AFC5"/>
<path d="M73.9635 15.076H76.6794V19.419H73.9635V15.076Z" fill="#A8AFC5"/>
<path d="M40.8301 15.076L40.8301 12.3616L76.6794 12.3616V15.076H40.8301Z" fill="#A8AFC5"/>
<path d="M43.5459 28.1049C43.5459 28.8545 42.938 29.4621 42.188 29.4621C41.438 29.4621 40.8301 28.8545 40.8301 28.1049C40.8301 27.3554 41.438 26.7477 42.188 26.7477C42.938 26.7477 43.5459 27.3554 43.5459 28.1049Z" fill="#A8AFC5"/>
<path d="M76.8695 28.1049C76.8695 28.8545 76.2615 29.4621 75.5116 29.4621C74.7616 29.4621 74.1536 28.8545 74.1536 28.1049C74.1536 27.3554 74.7616 26.7477 75.5116 26.7477C76.2615 26.7477 76.8695 27.3554 76.8695 28.1049Z" fill="#A8AFC5"/>
</g>
<defs>
<clipPath id="clip0_2361_1162">
<rect width="98.2778" height="36.0781" fill="white" transform="translate(40.8301 12.2488)"/>
</clipPath>
</defs>
</svg>
